F:\SVNProject\Projects\Dev\HPortal\HPortal v4.0\HPortalService\HPortalService
--output-path=obj\Debug\netcoreapp2.0\
--application-name=HPortalService
--content-root=F:\SVNProject\Projects\Dev\HPortal\HPortal v4.0\HPortalService\HPortalService
--file=
